{
  "type": "group_join",
  "results": {
    "id": {
      "fromMe": true,
      "remote": "XXXX",
      "id": "XXXX",
      "_serialized": "XXXX"
    },
    "body": "",
    "type": "add",
    "timestamp": 1234,
    "chatId": "XXXX",
    "author": "XXXX",
    "recipientIds": [
      "XXXX"
    ]
  }
}