{
  "type": "media_uploaded",
  "results": {
    "mediaKey": "XXXX",
    "id": {
      "fromMe": true,
      "remote": "XXXX",
      "id": "XXXX",
      "_serialized": "XXXX"
    },
    "ack": 1,
    "hasMedia": true,
    "body": "XXXX",
    "type": "document",
    "timestamp": 1234,
    "from": "XXXX",
    "to": "XXXX",
    "isForwarded": false,
    "fromMe": true,
    "hasQuotedMsg": false,
    "mentionedIds": []
  }
}